<svg width="30" height="30" viewBox="0 0 30 30" fill="none" xmlns="http://www.w3.org/2000/svg">
<g clip-path="url(#clip0)">
<path d="M12.4492 13.5098H14.4493V14.51H12.4492V13.5098Z" fill="#828282"/>
<path d="M29.5202 12.0149L26.1236 11.5299C25.5042 11.1494 24.8615 10.8088 24.1988 10.5099C22.0104 9.51864 19.6351 9.00713 17.2324 9.00978H16.6423C13.8069 9.01181 11.0168 9.72333 8.52635 11.0794L6.81216 12.0145C4.80559 12.0371 2.83768 12.5708 1.0944 13.5645C0.385935 13.9709 -0.0515136 14.7247 -0.0527344 15.5412V18.5104C-0.0527344 18.7867 0.171077 19.0105 0.447381 19.0105H2.12637C2.67247 20.5684 4.37811 21.3888 5.93604 20.8427C6.79364 20.5421 7.46772 19.8679 7.76824 19.0105H21.1277C21.6738 20.5684 23.3795 21.3888 24.9374 20.8427C25.7948 20.5421 26.4691 19.8679 26.7696 19.0105H26.949C27.0127 19.0105 27.0758 18.9985 27.135 18.9749L28.7546 18.325C29.4781 18.0385 29.952 17.3382 29.9493 16.5603V12.51C29.9493 12.2613 29.7664 12.0504 29.5202 12.0149ZM6.90718 18.4104C6.68601 19.4927 5.62942 20.1908 4.54719 19.9696C3.46476 19.7484 2.76667 18.6918 2.98784 17.6094C3.20921 16.5272 4.2658 15.8291 5.34803 16.0503C6.27929 16.2405 6.94787 17.0599 6.94767 18.0104C6.94767 18.1447 6.93404 18.2788 6.90718 18.4104ZM15.9483 18.0104H7.9477C7.9477 16.3534 6.60463 15.0101 4.94761 15.0101C3.2906 15.0101 1.94732 16.3534 1.94732 18.0104H0.947294V15.5412C0.947904 15.0832 1.19328 14.6602 1.59085 14.4327C3.22264 13.5011 5.06888 13.0107 6.94767 13.0101H15.9483V18.0104ZM15.9483 12.0101H8.90886L9.0053 11.9574C11.1431 10.7956 13.5177 10.137 15.9483 10.0318V12.0101ZM16.9484 10.0098H17.2314C19.2465 10.0076 21.2433 10.3901 23.115 11.137L22.2419 12.0101H16.9484V10.0098ZM25.9085 18.4104C25.6874 19.4927 24.6308 20.1908 23.5483 19.9696C22.4661 19.7484 21.768 18.6918 21.9892 17.6094C22.2104 16.5272 23.2672 15.8291 24.3494 16.0503C25.2806 16.2405 25.9492 17.0599 25.949 18.0104C25.949 18.1447 25.9354 18.2788 25.9085 18.4104ZM28.9493 13.51H27.4492V14.5102H28.9493V16.5603C28.9505 16.9288 28.7259 17.2605 28.3833 17.3958L26.949 17.9718C26.949 17.9258 26.9431 17.8802 26.9401 17.8342C26.937 17.7883 26.936 17.7343 26.9311 17.6843C26.9261 17.6342 26.9161 17.5842 26.9082 17.5343C26.9 17.4843 26.8941 17.4342 26.8841 17.3889C26.8742 17.3433 26.8595 17.2928 26.8465 17.2452C26.8335 17.1978 26.8235 17.1498 26.8085 17.1032C26.7936 17.0568 26.7755 17.0122 26.7586 16.9667C26.7415 16.9213 26.726 16.8743 26.7086 16.8291C26.6911 16.7842 26.6675 16.7433 26.6465 16.7007C26.6255 16.6582 26.605 16.6116 26.5816 16.5687C26.558 16.5258 26.5315 16.4891 26.509 16.4493C26.4866 16.4092 26.4591 16.3636 26.4306 16.3227C26.4019 16.2816 26.3755 16.2492 26.348 16.2122C26.3205 16.1752 26.2894 16.1316 26.2575 16.0932C26.2255 16.0547 26.1956 16.0246 26.1645 15.9931C26.1336 15.9618 26.099 15.9192 26.0646 15.8842C26.03 15.8492 25.996 15.8216 25.9616 15.7906C25.927 15.7597 25.89 15.7231 25.852 15.6905C25.8141 15.6582 25.7755 15.6332 25.7376 15.6047C25.6996 15.5762 25.6615 15.5457 25.6216 15.519C25.5816 15.4926 25.5366 15.4692 25.4937 15.4411C25.4505 15.413 25.4155 15.391 25.375 15.3697C25.3346 15.3481 25.2841 15.3255 25.2381 15.3035C25.1921 15.2816 25.1561 15.262 25.1136 15.2441C25.0711 15.226 25.0135 15.2071 24.9636 15.1892C24.9136 15.1711 24.881 15.1571 24.8385 15.1436C24.7815 15.1261 24.7231 15.1135 24.665 15.0991C24.6269 15.0901 24.5905 15.0781 24.552 15.0702C24.4906 15.0576 24.4275 15.0506 24.365 15.0415C24.328 15.0366 24.2926 15.0285 24.2556 15.025C24.1555 15.015 24.0556 15.0095 23.9506 15.0095C22.2942 15.0112 20.9519 16.3534 20.9503 18.0098H16.9486V13.0099H22.4488C22.5815 13.0099 22.7086 12.9572 22.8022 12.8634L24.0989 11.5667C24.6432 11.8257 25.1724 12.1153 25.6841 12.4339C25.7431 12.4707 25.809 12.4949 25.878 12.5049L28.9493 12.9434V13.51Z" fill="#828282"/>
</g>
<defs>
<clipPath id="clip0">
<rect width="30" height="30" fill="white"/>
</clipPath>
</defs>
</svg>
