<svg width="135" height="60" viewBox="0 0 135 60" fill="none" xmlns="http://www.w3.org/2000/svg">
<path fill-rule="evenodd" clip-rule="evenodd" d="M99.3984 38.2759C100.546 37.8295 101.772 37.6197 103.002 37.6588C105.387 37.7346 107.648 38.7398 109.308 40.4615C110.968 42.1833 111.897 44.4866 111.898 46.8843C111.898 49.282 110.971 51.5859 109.312 53.3087C107.653 55.0315 105.392 56.038 103.008 56.1153C101.778 56.1552 100.552 55.9461 99.4037 55.5005C98.2553 55.0549 97.2078 54.3818 96.3233 53.5212C95.4389 52.6607 94.7355 51.6302 94.255 50.491C93.7745 49.3519 93.5267 48.1273 93.5264 46.89C93.526 45.6527 93.773 44.4279 94.2528 43.2885C94.7326 42.149 95.4353 41.1181 96.3193 40.257C97.2032 39.3959 98.2503 38.7222 99.3984 38.2759ZM99.299 50.6086C100.281 51.5959 101.613 52.1505 103.002 52.1505C104.367 52.1138 105.664 51.5431 106.616 50.5598C107.569 49.5765 108.102 48.2584 108.102 46.8861C108.102 45.5138 107.569 44.1957 106.616 43.2124C105.664 42.2292 104.367 41.6584 103.002 41.6217C101.613 41.6217 100.281 42.1764 99.299 43.1636C98.3168 44.1509 97.7651 45.4899 97.7651 46.8861C97.7651 48.2823 98.3168 49.6213 99.299 50.6086ZM16.204 46.8842C16.204 41.7856 20.3152 37.6588 25.3877 37.6588C26.5937 37.6583 27.7879 37.8966 28.9022 38.3601C30.0165 38.8236 31.0291 39.5031 31.8821 40.36C32.735 41.2168 33.4117 42.2342 33.8735 43.354C34.3353 44.4737 34.5731 45.674 34.5733 46.8861C34.5906 48.1096 34.3658 49.3243 33.9119 50.4596C33.458 51.595 32.7841 52.6283 31.9294 53.4996C31.0747 54.3709 30.0563 55.0627 28.9333 55.5349C27.8102 56.007 26.605 56.2501 25.3877 56.25C24.1704 56.2499 22.9653 56.0065 21.8424 55.5341C20.7194 55.0618 19.7011 54.3697 18.8466 53.4983C17.9921 52.6268 17.3184 51.5933 16.8648 50.4579C16.4111 49.3224 16.1865 48.1077 16.204 46.8842ZM23.3838 51.748C24.019 52.0131 24.7 52.1499 25.3877 52.1505C26.7768 52.1518 28.1094 51.5983 29.0925 50.6119C30.0756 49.6256 30.6286 48.287 30.6298 46.8908C30.6311 45.4946 30.0805 44.1551 29.0991 43.167C28.1178 42.1788 26.7862 41.623 25.3971 41.6217C24.0081 41.6205 22.6754 42.1739 21.6923 43.1603C20.7093 44.1467 20.1563 45.4852 20.155 46.8814C20.1538 48.2776 20.7044 49.6171 21.6857 50.6053C22.1716 51.0946 22.7486 51.4829 23.3838 51.748ZM130.177 35.2196C130.606 35.3776 130.974 35.5126 131.097 35.8412C131.339 36.4854 131.438 43.9064 130.263 44.3566C129.092 44.8048 115.233 46.6074 115.233 46.6074C115.233 46.6074 115.355 34.3231 102.746 34.6735C101.446 34.7058 100.154 34.898 98.9006 35.246L105.174 25.6439C105.731 25.3256 106.072 24.8623 105.933 24.1748C105.3 21.0369 103.422 18.9104 98.3384 17.2228L95.88 26.2862L100.737 26.2937C100.737 26.2937 101.635 26.3484 102.684 26.2636L95.4996 36.7943C89.938 40.631 90.6294 48.3327 90.6294 48.3327L70.3226 48.4607L74.5668 26.7269H72.4887L68.2145 48.5041L44.6115 48.7433L43.5322 33.4661L46.8564 27.6065L72.0484 26.6987L74.7617 16.1887C74.7617 16.1887 66.4868 15.9966 62.4824 17.2849C53.2724 20.2439 44.6134 27.6706 44.6134 27.6706L41.4222 33.3512L42.6721 48.7734L37.0075 48.828C37.0075 48.828 38.8438 34.6791 25.0074 34.7827C12.8161 34.8693 13.5019 48.0916 13.5019 48.0916C13.5019 48.0916 8.52126 48.2196 7.44755 47.9804C6.69988 47.8109 4.73422 47.0707 4.22453 45.9199C3.71672 44.7634 3.75232 42.1962 3.75232 42.1962C3.75232 42.1962 3.59117 34.681 5.95222 33.1139C6.02971 33.0625 6.11046 33.0076 6.19637 32.9492C6.98923 32.4102 8.22165 31.5722 11.3882 30.4506C17.7294 28.1927 28.4023 26.8828 34.5014 26.1343C35.8963 25.9631 37.052 25.8213 37.8619 25.7042C40.0849 25.3809 44.8215 22.7744 49.6762 20.1028C54.3236 17.5454 59.0793 14.9284 61.8415 14.1978C67.4912 12.7042 89.0535 13.0338 96.1179 13.6121C109.891 14.7374 114.668 19.6555 116.812 21.8633C117.399 22.4676 117.788 22.8688 118.111 22.9336C118.526 23.0169 119.477 23.033 120.657 23.0529C123.744 23.1051 128.398 23.1838 129.107 24.5628C129.801 25.9119 129.491 27.1886 129.21 28.3504C129.125 28.7003 129.042 29.0398 128.991 29.3676C128.965 29.5344 128.935 29.7148 128.903 29.9051C128.638 31.5064 128.259 33.8025 128.927 34.5096C129.294 34.8952 129.764 35.068 130.177 35.2196ZM5.54934 40.307C5.54934 40.307 9.99973 38.8944 10.7024 37.2463C11.4051 35.5983 10.7024 33.2439 7.89165 33.7148C7.89165 33.7148 6.0178 34.6565 5.78357 36.0691C5.54934 37.4818 5.54934 40.307 5.54934 40.307ZM75.2339 26.774L94.008 26.4067L96.9349 16.9892C96.9349 16.9892 92.3122 16.5277 88.3284 16.3224C84.8224 16.1416 77.6643 16.2565 77.6643 16.2565L75.2339 26.774ZM126.905 30.9118C126.949 30.4591 126.988 30.0644 127.035 29.8197C127.342 28.213 127.503 26.9944 127.503 26.9944C127.503 26.9944 123.755 26.759 123.287 27.4653C122.818 28.1716 122.584 30.9969 123.287 32.4095C123.99 33.8221 125.395 34.293 126.098 34.0576C126.615 33.8843 126.782 32.173 126.905 30.9118ZM59.5418 31.0161C61.2779 30.4368 62.8832 29 62.8832 29C62.8832 29 65.6382 32.5841 64.8622 37.2882C64.5335 39.2799 62.0168 44.992 54.3328 44.148C53.8227 44.8913 53.5209 45.7233 53.3766 46.5923C53.0064 46.6792 52.1457 47 52.1457 47C52.4937 45.0377 53.3159 43.0744 54.5302 42.277C60.0281 38.6649 61.4149 32.8597 61.4149 32.8597C61.4149 32.8597 60.1588 37.684 53.979 41.8752C53.0051 42.5358 52.2842 43.6941 52.2842 43.6941C52.1073 43.6665 46.6851 35.3062 59.5418 31.0161Z" fill="#4F4F4F"/>
</svg>
